<svg xmlns="http://www.w3.org/2000/svg" xmlns:xlink="http://www.w3.org/1999/xlink" width="154" height="154" viewBox="0 0 154 154">
  <defs>
    <clipPath id="clip-path">
      <rect id="Rectangle_47" data-name="Rectangle 47" width="154" height="154" rx="8" transform="translate(391 1540)" fill="#ffd2d2" opacity="0.33"/>
    </clipPath>
  </defs>
  <g id="Mask_Group_7" data-name="Mask Group 7" transform="translate(-391 -1540)" clip-path="url(#clip-path)">
    <g id="flag" transform="translate(424 1571.333)">
      <path id="Path_566" data-name="Path 566" d="M65.9,58.056a.8.8,0,0,1-.8-.8V14.635a.8.8,0,0,0-.8-.8H61.079a.8.8,0,0,0-.8.8V57.251a.8.8,0,1,1-1.608,0V14.635a2.415,2.415,0,0,1,2.412-2.412H64.3a2.415,2.415,0,0,1,2.412,2.412V57.251A.8.8,0,0,1,65.9,58.056Zm0,0" transform="translate(-20.07 -4.181)" fill="#263238"/>
      <path id="Path_567" data-name="Path 567" d="M113.088,24.766H99.854a12.054,12.054,0,0,1-6.69-2.026l-3.571-2.381a12.071,12.071,0,0,0-6.69-2.026H69.667V50.5H82.9a12.054,12.054,0,0,1,6.69,2.026l3.571,2.382a12.071,12.071,0,0,0,6.69,2.026h13.235Zm0,0" transform="translate(-23.833 -6.272)" fill="#4db6ac"/>
      <path id="Path_568" data-name="Path 568" d="M113.474,57.316H99.436A12.823,12.823,0,0,1,92.3,55.154l-3.572-2.38a11.231,11.231,0,0,0-6.244-1.891H68.444V17.111H82.482a12.823,12.823,0,0,1,7.137,2.162l3.572,2.38a11.231,11.231,0,0,0,6.244,1.891h14.038ZM70.053,49.275h12.43a12.823,12.823,0,0,1,7.137,2.162l3.572,2.38a11.231,11.231,0,0,0,6.244,1.891h12.43V25.152H99.436A12.823,12.823,0,0,1,92.3,22.99l-3.572-2.38a11.231,11.231,0,0,0-6.244-1.891H70.053Zm0,0" transform="translate(-23.415 -5.854)" fill="#263238"/>
      <path id="Path_569" data-name="Path 569" d="M123.734,43.871a.8.8,0,0,1-.8-.8V35.83h-7.237a.8.8,0,0,1,0-1.608h8.041a.8.8,0,0,1,.8.8v8.041A.8.8,0,0,1,123.734,43.871Zm0,0" transform="translate(-39.304 -11.708)" fill="#263238"/>
      <path id="Path_570" data-name="Path 570" d="M5.275,121.386H14.12a1.609,1.609,0,0,0,1.608-1.608V90.83a1.609,1.609,0,0,0-1.608-1.608H5.275A1.609,1.609,0,0,0,3.667,90.83v28.947A1.609,1.609,0,0,0,5.275,121.386Zm0,0" transform="translate(-1.254 -30.523)" fill="#ff5252"/>
      <g id="Group_142" data-name="Group 142">
        <path id="Path_571" data-name="Path 571" d="M13.7,121.772H4.857a2.415,2.415,0,0,1-2.412-2.412V90.412A2.415,2.415,0,0,1,4.857,88H13.7a2.415,2.415,0,0,1,2.412,2.412V119.36A2.415,2.415,0,0,1,13.7,121.772ZM4.857,89.608a.8.8,0,0,0-.8.8V119.36a.8.8,0,0,0,.8.8H13.7a.8.8,0,0,0,.8-.8V90.412a.8.8,0,0,0-.8-.8Zm0,0" transform="translate(-0.836 -30.105)" fill="#263238"/>
        <path id="Path_572" data-name="Path 572" d="M64.231,130.649H58.6a4.825,4.825,0,1,1,0-9.649H64a5,5,0,0,1,5.029,4.329,4.826,4.826,0,0,1-4.8,5.32ZM58.6,122.608a3.216,3.216,0,1,0,0,6.433h5.629a3.224,3.224,0,0,0,2.386-1.06,3.184,3.184,0,0,0,.812-2.491A3.372,3.372,0,0,0,64,122.608Zm0,0" transform="translate(-18.398 -41.395)" fill="#263238"/>
        <path id="Path_573" data-name="Path 573" d="M67.447,118.427H58.6a4.825,4.825,0,1,1,0-9.649h8.615a5,5,0,0,1,5.029,4.329,4.826,4.826,0,0,1-4.8,5.32ZM58.6,110.386a3.216,3.216,0,1,0,0,6.433h8.845a3.224,3.224,0,0,0,2.386-1.06,3.184,3.184,0,0,0,.812-2.491,3.372,3.372,0,0,0-3.428-2.882Zm0,0" transform="translate(-18.398 -37.213)" fill="#263238"/>
        <path id="Path_574" data-name="Path 574" d="M52.2,134.83H26.471a.8.8,0,1,1,0-1.608H52.2a.8.8,0,1,1,0,1.608Zm0,0" transform="translate(-8.781 -45.576)" fill="#263238"/>
        <path id="Path_575" data-name="Path 575" d="M57.83,93.982H48.985a.8.8,0,1,1,0-1.608H57.83a3.224,3.224,0,0,0,2.386-1.06,3.187,3.187,0,0,0,.812-2.492,3.372,3.372,0,0,0-3.428-2.88H41.629a15.2,15.2,0,0,0-5.673,1.094L26.77,90.71a.8.8,0,0,1-.6-1.494l9.186-3.675a16.811,16.811,0,0,1,6.27-1.208H57.6a4.994,4.994,0,0,1,5.029,4.329,4.824,4.824,0,0,1-4.8,5.32Zm0,0" transform="translate(-8.781 -28.851)" fill="#263238"/>
        <path id="Path_576" data-name="Path 576" d="M48.834,102.023A4.822,4.822,0,0,1,44,97.2V94.384a.8.8,0,0,1,1.608,0V97.2a3.224,3.224,0,0,0,1.06,2.386,3.175,3.175,0,0,0,2.491.812,3.373,3.373,0,0,0,2.882-3.428V89.158a3.22,3.22,0,0,0-3.216-3.216.8.8,0,1,1,0-1.608,4.831,4.831,0,0,1,4.825,4.825v7.811A5,5,0,0,1,49.32,102a4.405,4.405,0,0,1-.486.026Zm0,0" transform="translate(-15.053 -28.851)" fill="#263238"/>
        <path id="Path_577" data-name="Path 577" d="M69.453,106.2H59a4.835,4.835,0,0,1-3.908-2.01.8.8,0,0,1,0-.939,3.641,3.641,0,0,0,.692-2.1V98.183a.805.805,0,0,1,.32-.642,4.771,4.771,0,0,1,2.9-.985H69.223a5,5,0,0,1,5.029,4.329,4.826,4.826,0,0,1-4.8,5.32Zm-12.716-2.549A3.168,3.168,0,0,0,59,104.6H69.453a3.224,3.224,0,0,0,2.386-1.06,3.184,3.184,0,0,0,.812-2.491,3.372,3.372,0,0,0-3.428-2.882H59a3.146,3.146,0,0,0-1.608.445v2.543a5.229,5.229,0,0,1-.655,2.5Zm0,0" transform="translate(-18.795 -33.032)" fill="#263238"/>
        <path id="Path_578" data-name="Path 578" d="M145.187,121.386h-3.216a.8.8,0,0,1,0-1.608h3.216a.8.8,0,1,1,0,1.608Zm0,0" transform="translate(-48.294 -40.977)" fill="#263238"/>
        <path id="Path_579" data-name="Path 579" d="M123.7,121.386H97.971a.8.8,0,0,1,0-1.608H123.7a.8.8,0,0,1,0,1.608Zm0,0" transform="translate(-33.241 -40.977)" fill="#263238"/>
        <path id="Path_580" data-name="Path 580" d="M4.02,41.942H.8a.8.8,0,0,1,0-1.608H4.02a.8.8,0,0,1,0,1.608Zm0,0" transform="translate(0 -13.798)" fill="#263238"/>
        <path id="Path_581" data-name="Path 581" d="M36.313,41.942H10.582a.8.8,0,0,1,0-1.608H36.313a.8.8,0,0,1,0,1.608Zm0,0" transform="translate(-3.345 -13.798)" fill="#263238"/>
        <path id="Path_582" data-name="Path 582" d="M136.792,6.5H130.36a.8.8,0,0,1,0-1.608h6.433a.8.8,0,0,1,0,1.608Zm0,0" transform="translate(-44.322 -1.673)" fill="#263238"/>
        <path id="Path_583" data-name="Path 583" d="M135.249,8.041a.8.8,0,0,1-.8-.8V.8a.8.8,0,1,1,1.608,0V7.237A.8.8,0,0,1,135.249,8.041Zm0,0" transform="translate(-45.994)" fill="#263238"/>
        <path id="Path_584" data-name="Path 584" d="M149.015,18.719h-6.433a.8.8,0,1,1,0-1.608h6.433a.8.8,0,0,1,0,1.608Zm0,0" transform="translate(-48.503 -5.854)" fill="#263238"/>
        <path id="Path_585" data-name="Path 585" d="M147.471,20.263a.8.8,0,0,1-.8-.8V13.026a.8.8,0,1,1,1.608,0v6.433A.8.8,0,0,1,147.471,20.263Zm0,0" transform="translate(-50.175 -4.181)" fill="#263238"/>
      </g>
    </g>
  </g>
</svg>
