<svg xmlns="http://www.w3.org/2000/svg" xmlns:xlink="http://www.w3.org/1999/xlink" width="570.601" height="626.612" viewBox="0 0 570.601 626.612">
  <defs>
    <linearGradient id="linear-gradient" x1="-0.426" y1="2.413" x2="-0.217" y2="-0.333" gradientUnits="objectBoundingBox">
      <stop offset="0" stop-color="#1ae5ff"/>
      <stop offset="0.259" stop-color="#63e8f8"/>
      <stop offset="0.704" stop-color="#eaeeee"/>
    </linearGradient>
    <linearGradient id="linear-gradient-2" x1="-21.598" y1="0.5" x2="-20.598" y2="0.5" gradientUnits="objectBoundingBox">
      <stop offset="0" stop-color="#e41c3e"/>
      <stop offset="1" stop-color="#ffaab8"/>
    </linearGradient>
    <linearGradient id="linear-gradient-3" y1="0.5" x2="1" y2="0.5" gradientUnits="objectBoundingBox">
      <stop offset="0" stop-color="#7f5eff"/>
      <stop offset="0.242" stop-color="#8664ff"/>
      <stop offset="0.595" stop-color="#97f"/>
      <stop offset="0.94" stop-color="#b391ff"/>
    </linearGradient>
    <linearGradient id="linear-gradient-4" x1="0.5" y1="-0.431" x2="0.5" y2="1.431" xlink:href="#linear-gradient-3"/>
    <linearGradient id="linear-gradient-5" x1="25" y1="0.952" x2="27.188" y2="0.073" xlink:href="#linear-gradient"/>
    <linearGradient id="linear-gradient-6" x1="-1.325" y1="0.5" x2="-0.325" y2="0.5" gradientUnits="objectBoundingBox">
      <stop offset="0" stop-color="#5155d4"/>
      <stop offset="1" stop-color="#45f7ff"/>
    </linearGradient>
    <linearGradient id="linear-gradient-7" x1="10.321" y1="1.713" x2="10.116" y2="-0.714" xlink:href="#linear-gradient"/>
    <linearGradient id="linear-gradient-8" x1="9.708" y1="3.316" x2="9.487" y2="-1.829" xlink:href="#linear-gradient"/>
    <linearGradient id="linear-gradient-9" x1="26.872" y1="2.196" x2="26.504" y2="0.034" xlink:href="#linear-gradient"/>
    <linearGradient id="linear-gradient-10" x1="0.39" y1="0.71" x2="1.312" y2="-1.047" gradientUnits="objectBoundingBox">
      <stop offset="0" stop-color="#cc68ff"/>
      <stop offset="1" stop-color="#fb8e31"/>
    </linearGradient>
  </defs>
  <g id="Group_91" data-name="Group 91" transform="translate(-150.191 -88.935)">
    <g id="Group_71" data-name="Group 71" transform="translate(520.96 581.988)">
      <path id="Path_113" data-name="Path 113" d="M393.917,371.509a11.357,11.357,0,0,1,5.15,8.921c-.01,3.3-2.332,4.622-5.185,2.975l-46.976-27.122a11.366,11.366,0,0,1-5.152-8.942c.01-3.277,2.334-4.6,5.185-2.956Z" transform="translate(-341.754 -343.678)" fill="#e41c3e"/>
    </g>
    <g id="Group_75" data-name="Group 75" transform="translate(239.011 88.935)">
      <path id="Path_114" data-name="Path 114" d="M227,91.684c-.213-.122-.426-.24-.639-.356q-.412-.224-.821-.424t-.813-.383c-.269-.122-.536-.234-.8-.341s-.542-.211-.809-.3c-.052-.019-.1-.033-.155-.05l-.06-.021c-.2-.066-.393-.134-.588-.192-.277-.083-.554-.159-.826-.228s-.55-.13-.823-.182q-.441-.087-.877-.145c-.2-.027-.393-.043-.588-.06l-.087-.01c-.072-.006-.143-.015-.215-.021-.317-.021-.631-.033-.941-.031-.352,0-.7.017-1.037.05a10.6,10.6,0,0,0-1.154.166l-.027.008-.037.01a10.134,10.134,0,0,0-1.336.368,9.611,9.611,0,0,0-1.62.749L199.469,98a9.885,9.885,0,0,1,2.952-1.115l.041-.012a11.936,11.936,0,0,1,3.372-.17l.093.01a16.2,16.2,0,0,1,3.7.807l.056.019a23.151,23.151,0,0,1,4.039,1.86l362.99,210.127,13.277-7.715Z" transform="translate(-192.911 -88.935)" fill="url(#linear-gradient)"/>
      <path id="Path_115" data-name="Path 115" d="M431.683,234.661c-.01-.323-.023-.646-.044-.97s-.047-.65-.077-.975-.068-.654-.11-.983-.089-.67-.143-1.006l0-.027,0-.021c-.05-.319-.106-.643-.166-.964-.066-.348-.135-.7-.213-1.045s-.157-.7-.244-1.049-.18-.708-.279-1.063c-.077-.275-.159-.55-.24-.825l-.019-.066c-.017-.056-.033-.112-.05-.168q-.16-.52-.331-1.035t-.356-1.02c-.118-.327-.242-.654-.368-.979s-.257-.648-.391-.972c-.1-.25-.211-.5-.319-.743l-.019-.046c-.025-.056-.048-.112-.074-.168q-.215-.488-.441-.97-.247-.528-.509-1.051c-.2-.4-.406-.8-.617-1.2-.228-.426-.472-.848-.714-1.27-.043-.074-.081-.149-.124-.223s-.1-.178-.149-.265q-.709-1.2-1.485-2.365-.616-.92-1.268-1.806c-.292-.395-.588-.786-.89-1.169q-.38-.482-.772-.952c-.254-.308-.511-.608-.772-.906s-.517-.581-.78-.863l-.157-.166-.058-.058c-.2-.213-.4-.426-.6-.633-.279-.285-.561-.561-.844-.834s-.585-.552-.881-.819-.592-.525-.892-.778c-.149-.126-.3-.246-.451-.368l-.1-.085-.337-.275c-.292-.23-.585-.453-.881-.672s-.579-.418-.871-.619-.567-.381-.852-.563-.565-.352-.85-.519l-.2-.116-13.277,7.717a30.986,30.986,0,0,1,3.987,2.764l.1.081a38.573,38.573,0,0,1,3.672,3.434l.058.06a46.905,46.905,0,0,1,6.273,8.493c.043.074.081.149.124.223a48.513,48.513,0,0,1,2.352,4.653l.025.056a44.528,44.528,0,0,1,1.812,4.914l.019.066a38.022,38.022,0,0,1,1.144,4.945l0,.019a30.7,30.7,0,0,1,.393,4.868l-.718,253.41a22.832,22.832,0,0,1-.408,4.314l-.025.124a16.031,16.031,0,0,1-1.132,3.526c-.01.021-.017.044-.027.066a11.709,11.709,0,0,1-1.5,2.326c-.184.232-.358.476-.555.689a9.841,9.841,0,0,1-2.189,1.8l13.277-7.717a9.84,9.84,0,0,0,2.189-1.8c.2-.213.37-.455.555-.687a10.955,10.955,0,0,0,.722-.894,12.541,12.541,0,0,0,.757-1.37l.027-.064.025-.062c.151-.327.3-.662.428-1.012s.242-.693.35-1.055q.145-.5.265-1.024c.033-.143.058-.294.089-.439l.025-.124c.027-.139.058-.275.083-.416.054-.314.1-.633.143-.958s.073-.639.1-.966c.027-.31.046-.625.06-.946s.021-.641.021-.97l0-.058.718-253.41C431.7,235.265,431.692,234.963,431.683,234.661Z" transform="translate(-6.761 15.891)" fill="url(#linear-gradient-2)"/>
      <g id="Group_72" data-name="Group 72" transform="translate(0 7.717)">
        <path id="Path_116" data-name="Path 116" d="M587.776,309.8c11.067,6.389,20,21.859,19.963,34.576l-.718,253.41c-.037,12.716-9.027,17.839-20.092,11.45L216.042,395.107c-11.065-6.389-20-21.859-19.961-34.574l.718-253.412c.037-12.716,9.025-17.838,20.092-11.45Z" transform="translate(-196.081 -92.922)" fill="url(#linear-gradient-3)"/>
      </g>
      <g id="Group_73" data-name="Group 73" transform="translate(26.183 34.859)">
        <path id="Path_117" data-name="Path 117" d="M552.226,296.12c10.173,5.874,18.385,20.1,18.352,31.787l-.66,232.96c-.035,11.69-8.3,16.4-18.472,10.527L227.959,384.744c-10.173-5.872-18.385-20.094-18.35-31.785l.66-232.96c.033-11.69,8.3-16.4,18.47-10.527Z" transform="translate(-209.609 -106.945)" fill="#f9fbfc"/>
      </g>
      <path id="Path_118" data-name="Path 118" d="M402.792,351.164h0a2.707,2.707,0,0,1-2.708-2.708V267.243a2.706,2.706,0,0,1,2.708-2.706h0a2.706,2.706,0,0,1,2.706,2.706v81.213A2.706,2.706,0,0,1,402.792,351.164Z" transform="translate(-5.238 75.34)" fill="#f9fbfc"/>
      <g id="Group_74" data-name="Group 74" transform="translate(6.881 165.793)">
        <path id="Path_119" data-name="Path 119" d="M205.384,175.38a12.6,12.6,0,0,1,5.714,9.9c-.01,3.637-2.586,5.1-5.75,3.277a12.591,12.591,0,0,1-5.712-9.9C199.646,175.022,202.222,173.553,205.384,175.38Z" transform="translate(-199.636 -174.594)" fill="#fff"/>
      </g>
    </g>
    <g id="Group_79" data-name="Group 79" transform="translate(355.034 242.431)">
      <g id="Group_78" data-name="Group 78" transform="translate(0 0)">
        <g id="Group_76" data-name="Group 76" transform="translate(0.116)">
          <path id="Path_121" data-name="Path 121" d="M428.978,293.572a9.838,9.838,0,0,1,4.473,7.726l-.054,18.827c-.008,2.849-2.021,4-4.5,2.565L256.709,223.277a9.846,9.846,0,0,1-4.473-7.746l.054-18.825c.008-2.834,2.021-3.979,4.5-2.547Z" transform="translate(-252.236 -193.542)" fill="#cfe3ff"/>
        </g>
        <g id="Group_77" data-name="Group 77" transform="translate(0 40.973)">
          <path id="Path_122" data-name="Path 122" d="M428.918,314.741a9.843,9.843,0,0,1,4.473,7.746l-.054,18.825c-.008,2.851-2.021,3.979-4.5,2.547L256.649,244.446a9.814,9.814,0,0,1-4.473-7.727l.054-18.827c.008-2.849,2.021-4,4.5-2.565Z" transform="translate(-252.176 -214.711)" fill="#cfe3ff"/>
        </g>
      </g>
    </g>
    <path id="Path_123" data-name="Path 123" d="M329.06,283.422c4.624,2.671,8.354,9.145,8.34,14.445l-.01,3.4c-.015,5.313-3.77,7.454-8.394,4.783l-43.824-25.3c-4.624-2.671-8.367-9.137-8.352-14.452l.01-3.4c.016-5.3,3.782-7.448,8.406-4.777Z" transform="translate(125.913 118.874)" fill="url(#linear-gradient-4)"/>
    <g id="Group_82" data-name="Group 82" transform="translate(254.668 372.834)">
      <path id="Path_124" data-name="Path 124" d="M230.007,269.39s-14.859,8.559-17.141,47.727c1.9,7.225,13.308,11.028,22.055,5.323S234.6,276.04,230.007,269.39Z" transform="translate(-196.036 -204.02)" fill="url(#linear-gradient-5)"/>
      <path id="Path_125" data-name="Path 125" d="M260.775,309.035S294.8,293.878,299.38,291.3s8.007-12.012,9.724-14.013,9.438-6.577,9.151-4.575-4.289,5.719-4.289,5.719,2.859,4.862,3.432,8.007-3.718,9.437-6.006,11.154-7.721,2.288-7.721,2.288-27.739,18.586-32.315,18.873S260.2,316.469,260.775,309.035Z" transform="translate(-151.25 -201.372)" fill="#ff9d6f"/>
      <ellipse id="Ellipse_9" data-name="Ellipse 9" cx="68.786" cy="40.873" rx="68.786" ry="40.873" transform="translate(0 260.967)" opacity="0.21" fill="url(#linear-gradient-6)"/>
      <path id="Path_126" data-name="Path 126" d="M225.127,391.618s-.885,6.482.294,9.134c1.179,2.357,5.894,4.125,9.134,1.767a93.781,93.781,0,0,0,8.839-8.249s9.426-5.007,10.31-7.659-2.357-5.009-5.009-4.421-10.31,5.3-13.846,5.3S226.306,388.378,225.127,391.618Z" transform="translate(-184.864 -98.581)" fill="#113c7a"/>
      <path id="Path_127" data-name="Path 127" d="M219.955,315.735s8.245,136.079,9.273,140.021,11.723,6.205,13.705-.056c1.26-3.975,4.365-129.906,4.365-129.906Z" transform="translate(-189.404 -160.664)" fill="#113c7a"/>
      <path id="Path_128" data-name="Path 128" d="M239.412,395.555a2.109,2.109,0,0,0-.724,1.585c-.017,1.872.07,6.043,1.128,7.667a7.923,7.923,0,0,0,10.239,1.914c3.815-2.073,15.561-10.852,17.946-12.8a7.034,7.034,0,0,0,2.373-3.755,2.131,2.131,0,0,0-1.206-2.47c-1.665-.741-4.514-1.666-7.059-.811-3.89,1.308-8.787,5.522-14.087,5.294C244.041,392.013,240.784,394.372,239.412,395.555Z" transform="translate(-171.881 -94.42)" fill="#113c7a"/>
      <path id="Path_129" data-name="Path 129" d="M270.038,319.54c-.594-5.654-7.363-7.492-13.593-5.566-11.894-.641-30.308-.134-30.952,9.1-.956,13.667,5.45,23.418,11.63,30.052,4.568,4.9,7.607,14.278,8.884,18.848,1.082,36.091,3.474,86.983,4.966,91.855,2.406,7.846,14.243,7.492,14.777-.149C268.147,437.855,270.038,319.54,270.038,319.54Z" transform="translate(-184.312 -163.002)" fill="#113c7a"/>
      <path id="Path_130" data-name="Path 130" d="M276.736,367.013c-1.4,6.983-21.3,10.473-32.936,8.613s-24.17-7.572-23.756-21.066c0,0-1.767-53.913-1.767-64.52s6.67-18.457,6.67-18.457,6.519-7.45,27-3.259c0,0,16.688,3.635,24.368,15.972,0,0,5.3,13.552,3.536,41.836S276.736,367.013,276.736,367.013Z" transform="translate(-190.975 -206.213)" fill="url(#linear-gradient-7)"/>
      <path id="Path_131" data-name="Path 131" d="M227.412,260.425s1.767,10.312,0,15.025c-.3,2.357,10.016,10.312,19.15,8.249,5.3-1.179,5.007-3.83,5.007-3.83s-4.419-7.365-3.828-14.435S233.6,258.952,227.412,260.425Z" transform="translate(-182.434 -213.277)" fill="#ff7c40"/>
      <g id="Group_80" data-name="Group 80" transform="translate(30.836 2.072)">
        <path id="Path_132" data-name="Path 132" d="M268.714,260.992a24.306,24.306,0,1,1-24.306-24.306A24.307,24.307,0,0,1,268.714,260.992Z" transform="translate(-220.102 -236.686)" fill="#ff9d6f"/>
        <path id="Path_133" data-name="Path 133" d="M262.323,253.488s.294,24.347-5.009,29.261-13.444-4.6-26.46-7.651c-13.018-3.343,10.552-28.659,10.552-28.659Z" transform="translate(-213.711 -227.562)" fill="#ff9d6f"/>
      </g>
      <g id="Group_81" data-name="Group 81" transform="translate(69.252 72.306)">
        <path id="Path_134" data-name="Path 134" d="M248.181,273.075s5.325-1.521,11.408,7.225,14.832,20.154,19.014,22.057,9.887-1.9,12.169-1.9,8.367,10.649,6.085,15.972-17.114,7.986-20.915,7.986-28.521-14.83-31.943-23.2S235.252,273.456,248.181,273.075Z" transform="translate(-239.951 -272.974)" fill="url(#linear-gradient-8)"/>
        <path id="Path_135" data-name="Path 135" d="M264.44,289.973a7.719,7.719,0,0,1,6.844-4.564c5.325-.379,11.41,9.887,11.029,15.59s-8.747,8.746-10.647,7.225S273.566,302.9,264.44,289.973Z" transform="translate(-217.041 -261.35)" fill="url(#linear-gradient-9)"/>
      </g>
      <path id="Path_136" data-name="Path 136" d="M260.2,241.477s8.745,1.9,11.408,15.209c-1.142,5.706-9.128,1.142-12.168,8.747s-4.945,9.888-4.945,9.888l-1.9-.761s0-6.085-2.661-6.085-3.422,7.225-1.9,10.268a11.238,11.238,0,0,0,4.945,4.562s-3.8,6.467-5.706,7.225-8.745-.759-11.408-1.9-7.6-6.465-11.408-12.548-7.225-16.732-4.943-23.958,7.6-9.126,7.6-9.126a19.322,19.322,0,0,1,8.367-6.085C240.8,235.013,250.691,234.252,260.2,241.477Z" transform="translate(-190.509 -235.616)" fill="#843837"/>
      <path id="Path_137" data-name="Path 137" d="M257.531,274.629l-6.339-3.55s-16.225-1.521-22.055-5.323l-3.043,4.31a18.536,18.536,0,0,0,14.45,8.872c10.394,1.014,15.211-3.043,15.211-3.043Z" transform="translate(-183.66 -207.418)" fill="#cfdae4"/>
    </g>
    <g id="Group_87" data-name="Group 87" transform="translate(569.647 222.289)" opacity="0.67">
      <g id="Group_83" data-name="Group 83" transform="translate(0.302)">
        <path id="Path_138" data-name="Path 138" d="M411.6,182.812l-.021,7.125a5.458,5.458,0,0,1-8.195,4.705l-33.6-19.5a5.455,5.455,0,0,1-2.719-4.734l.021-7.125a5.456,5.456,0,0,1,8.195-4.705l33.6,19.5A5.462,5.462,0,0,1,411.6,182.812Z" transform="translate(-367.065 -157.834)" fill="#e41c3e"/>
      </g>
      <g id="Group_84" data-name="Group 84" transform="translate(0.201 35.447)">
        <path id="Path_139" data-name="Path 139" d="M517.956,262.463l-.019,7.14a5.458,5.458,0,0,1-8.185,4.711l-140.01-80.836a5.454,5.454,0,0,1-2.729-4.74l.021-7.14a5.457,5.457,0,0,1,8.185-4.711l140.008,80.834A5.459,5.459,0,0,1,517.956,262.463Z" transform="translate(-367.013 -176.148)" fill="#e41c3e"/>
      </g>
      <g id="Group_85" data-name="Group 85" transform="translate(0 106.387)" opacity="0.53">
        <path id="Path_140" data-name="Path 140" d="M460.128,265.788l-.019,7.14a5.457,5.457,0,0,1-8.185,4.711l-82.286-47.507a5.461,5.461,0,0,1-2.729-4.742l.021-7.14a5.457,5.457,0,0,1,8.185-4.711L457.4,261.048A5.452,5.452,0,0,1,460.128,265.788Z" transform="translate(-366.909 -212.8)" fill="#e41c3e"/>
      </g>
      <g id="Group_86" data-name="Group 86" transform="translate(0.101 70.917)">
        <path id="Path_141" data-name="Path 141" d="M496.194,268.255l-.019,7.14a5.458,5.458,0,0,1-8.185,4.711l-118.3-68.3a5.461,5.461,0,0,1-2.729-4.742l.021-7.14a5.457,5.457,0,0,1,8.185-4.711l118.3,68.3A5.457,5.457,0,0,1,496.194,268.255Z" transform="translate(-366.961 -194.474)" fill="#e41c3e"/>
      </g>
    </g>
    <g id="Group_88" data-name="Group 88" transform="translate(155.386 244.229)">
      <path id="Path_142" data-name="Path 142" d="M277.493,225.153a29.032,29.032,0,1,1-29.032-29.032A29.033,29.033,0,0,1,277.493,225.153Z" transform="translate(-219.428 -196.121)" fill="url(#linear-gradient-10)"/>
      <path id="Path_143" data-name="Path 143" d="M238.991,230.85l-12.118-8.862,4.409-6.029,6.287,4.6,12.742-16.248,5.877,4.611Z" transform="translate(-212.462 -188.463)" fill="#fff"/>
    </g>
    <g id="Group_89" data-name="Group 89" transform="translate(150.191 130.059)" opacity="0.46">
      <path id="Path_144" data-name="Path 144" d="M275.375,176.972c6.844,3.95,12.383,13.547,12.362,21.41-.023,7.912-5.6,11.09-12.443,7.14L162.553,140.43c-6.844-3.95-12.385-13.547-12.362-21.459.023-7.864,5.6-11.042,12.443-7.09Z" transform="translate(-150.191 -110.182)" fill="#e41c3e"/>
    </g>
    <g id="Group_90" data-name="Group 90" transform="translate(615.762 495.081)" opacity="0.46">
      <path id="Path_145" data-name="Path 145" d="M477.745,345.2c4.757,2.746,8.607,9.416,8.592,14.882-.016,5.5-3.892,7.709-8.648,4.963L399.327,319.8c-4.757-2.746-8.607-9.416-8.592-14.915.016-5.468,3.892-7.676,8.648-4.93Z" transform="translate(-390.735 -298.776)" fill="#e41c3e"/>
    </g>
  </g>
</svg>
